1,3,0.12
1,4,0.3
1,5,0.8
1,7,0.9
1,10,0.7
1,12,0.5
1,13,0.6
1,14,0.85
1,8,0.45
2,3,0.53
2,4,0.62
2,6,0.77
2,8,0.86
2,9,0.41
2,13,0.3
2,15,0.52
2,17,0.86
2,18,0.77
3,2,0.42
3,3,0.52
3,8,0.41
3,10,0.9
3,12,0.5
3,14,0.74
4,2,0.32
4,6,0.56
4,7,0.58
4,8,0.86
4,11,0.62
4,10,0.23
4,16,0.68
4,19,0.74
4,20,0.52
4,24,0.35
4,25,0.45
5,1,0.65
5,3,0.69
5,5,0.42
5,6,0.89
5,9,0.78
5,12,0.53
5,15,0.58
5,17,0.68
5,19,0.45
5,21,0.32
5,22,0.57
5,23,0.78
6,2,0.59
6,4,0.58
6,5,0.67
6,7,0.71
6,11,0.45
6,14,0.21
6,16,0.65
6,17,0.35
6,18,0.45
6,19,0.89
6,23,0.78
6,24,0.65
6,25,0.82